{
    "error": false,
    "message": "Categoerias listadas com sucesso!",
    "data": {
        "current_page": 1,
        "data": [
            {
                "id": 1,
                "name": "Tênis",
                "description": "Descrição da categoria Tênis",
                "created_at": "2024-05-09T19:34:55.000000Z",
                "updated_at": "2024-05-09T19:34:55.000000Z",
                "deleted_at": null
            },
            {
                "id": 2,
                "name": "Roupas",
                "description": "Descrição da categoria Roupas",
                "created_at": "2024-05-09T19:34:55.000000Z",
                "updated_at": "2024-05-09T19:34:55.000000Z",
                "deleted_at": null
            },
            {
                "id": 3,
                "name": "Acessórios",
                "description": "Descrição da categoria Acessórios",
                "created_at": "2024-05-09T19:34:55.000000Z",
                "updated_at": "2024-05-09T19:34:55.000000Z",
                "deleted_at": null
            },
            {
                "id": 4,
                "name": "Vestidos",
                "description": "Descrição da categoria Vestidos",
                "created_at": "2024-05-09T19:34:55.000000Z",
                "updated_at": "2024-05-09T19:34:55.000000Z",
                "deleted_at": null
            },
            {
                "id": 5,
                "name": "Calças",
                "description": "Descrição da categoria Calças",
                "created_at": "2024-05-09T19:34:55.000000Z",
                "updated_at": "2024-05-09T19:34:55.000000Z",
                "deleted_at": null
            },
            {
                "id": 6,
                "name": "Camisas",
                "description": "Descrição da categoria Camisas",
                "created_at": "2024-05-09T19:34:55.000000Z",
                "updated_at": "2024-05-09T19:34:55.000000Z",
                "deleted_at": null
            },
            {
                "id": 7,
                "name": "Saias",
                "description": "Descrição da categoria Saias",
                "created_at": "2024-05-09T19:34:55.000000Z",
                "updated_at": "2024-05-09T19:34:55.000000Z",
                "deleted_at": null
            },
            {
                "id": 8,
                "name": "Blusas",
                "description": "Descrição da categoria Blusas",
                "created_at": "2024-05-09T19:34:55.000000Z",
                "updated_at": "2024-05-09T19:34:55.000000Z",
                "deleted_at": null
            },
            {
                "id": 9,
                "name": "Jaquetas",
                "description": "Descrição da categoria Jaquetas",
                "created_at": "2024-05-09T19:34:55.000000Z",
                "updated_at": "2024-05-09T19:34:55.000000Z",
                "deleted_at": null
            },
            {
                "id": 10,
                "name": "Sapatos",
                "description": "Descrição da categoria Sapatos",
                "created_at": "2024-05-09T19:34:55.000000Z",
                "updated_at": "2024-05-09T19:34:55.000000Z",
                "deleted_at": null
            }
        ],
        "first_page_url": "http://127.0.0.1:8000/api/category?page=1",
        "from": 1,
        "last_page": 2,
        "last_page_url": "http://127.0.0.1:8000/api/category?page=2",
        "links": [
            {
                "url": null,
                "label": "&laquo; Previous",
                "active": false
            },
            {
                "url": "http://127.0.0.1:8000/api/category?page=1",
                "label": "1",
                "active": true
            },
            {
                "url": "http://127.0.0.1:8000/api/category?page=2",
                "label": "2",
                "active": false
            },
            {
                "url": "http://127.0.0.1:8000/api/category?page=2",
                "label": "Next &raquo;",
                "active": false
            }
        ],
        "next_page_url": "http://127.0.0.1:8000/api/category?page=2",
        "path": "http://127.0.0.1:8000/api/category",
        "per_page": 10,
        "prev_page_url": null,
        "to": 10,
        "total": 11
    }
}