{
  "error": false,
  "message": "Collabs listadas com sucesso!",
  "data": {
      "current_page": 1,
      "data": [
          {
              "id": 1,
              "name": "Jordan",
              "created_at": "2024-05-09T19:34:55.000000Z",
              "updated_at": "2024-05-09T19:34:55.000000Z",
              "deleted_at": null
          },
          {
              "id": 2,
              "name": "NOCTA",
              "created_at": "2024-05-09T19:34:55.000000Z",
              "updated_at": "2024-05-09T19:34:55.000000Z",
              "deleted_at": null
          },
          {
              "id": 3,
              "name": "Yeezy",
              "created_at": "2024-05-09T19:34:55.000000Z",
              "updated_at": "2024-05-09T19:34:55.000000Z",
              "deleted_at": null
          },
          {
              "id": 4,
              "name": "Off-White",
              "created_at": "2024-05-09T19:34:55.000000Z",
              "updated_at": "2024-05-09T19:34:55.000000Z",
              "deleted_at": null
          },
          {
              "id": 5,
              "name": "Gucci",
              "created_at": "2024-05-09T19:34:55.000000Z",
              "updated_at": "2024-05-09T19:34:55.000000Z",
              "deleted_at": null
          },
          {
              "id": 6,
              "name": "Nike",
              "created_at": "2024-05-09T19:34:55.000000Z",
              "updated_at": "2024-05-09T19:34:55.000000Z",
              "deleted_at": null
          },
          {
              "id": 7,
              "name": "Adidas",
              "created_at": "2024-05-09T19:34:55.000000Z",
              "updated_at": "2024-05-09T19:34:55.000000Z",
              "deleted_at": null
          },
          {
              "id": 8,
              "name": "Puma",
              "created_at": "2024-05-09T19:34:55.000000Z",
              "updated_at": "2024-05-09T19:34:55.000000Z",
              "deleted_at": null
          },
          {
              "id": 9,
              "name": "Vans",
              "created_at": "2024-05-09T19:34:55.000000Z",
              "updated_at": "2024-05-09T19:34:55.000000Z",
              "deleted_at": null
          },
          {
              "id": 10,
              "name": "Converse",
              "created_at": "2024-05-09T19:34:55.000000Z",
              "updated_at": "2024-05-09T19:34:55.000000Z",
              "deleted_at": null
          }
      ],
      "first_page_url": "http://127.0.0.1:8000/api/collab?page=1",
      "from": 1,
      "last_page": 2,
      "last_page_url": "http://127.0.0.1:8000/api/collab?page=2",
      "links": [
          {
              "url": null,
              "label": "&laquo; Previous",
              "active": false
          },
          {
              "url": "http://127.0.0.1:8000/api/collab?page=1",
              "label": "1",
              "active": true
          },
          {
              "url": "http://127.0.0.1:8000/api/collab?page=2",
              "label": "2",
              "active": false
          },
          {
              "url": "http://127.0.0.1:8000/api/collab?page=2",
              "label": "Next &raquo;",
              "active": false
          }
      ],
      "next_page_url": "http://127.0.0.1:8000/api/collab?page=2",
      "path": "http://127.0.0.1:8000/api/collab",
      "per_page": 10,
      "prev_page_url": null,
      "to": 10,
      "total": 11
  }
}