{
  "products": [
    {
      "error": false,
      "message": "Produtos listados com sucesso!",
      "data": {
        "current_page": 1,
        "data": [
          {
            "id": 1,
            "name": "Air Jordan 1 Low",
            "subname": "Jordan Low",
            "description": "Tenis do Jordan",
            "color": "White",
            "code": "15632",
            "release_date": null,
            "re_release_date": null,
            "re_release_restock": null,
            "value_retail": 500,
            "is_sole": 1,
            "is_popular": 0,
            "category_id": 1,
            "brand_id": 6,
            "collab_id": 1,
            "created_at": "2024-04-07T00:00:00.000000Z",
            "updated_at": "2024-05-09T18:24:48.000000Z",
            "deleted_at": null,
            "meta_infos": [
              {
                "id": 1,
                "catalog_id": 1,
                "meta_key": "Estilo",
                "meta_value": "OLD",
                "created_at": "2024-05-09T18:31:03.000000Z",
                "updated_at": "2024-05-09T18:31:03.000000Z",
                "deleted_at": null
              }
            ]
          },
          {
            "id": 2,
            "name": "Air Jordan 1 Low",
            "subname": "Jordan Low",
            "description": "Tenis do Jordan",
            "color": "Black/Red",
            "code": "15632",
            "release_date": null,
            "re_release_date": null,
            "re_release_restock": null,
            "value_retail": 500,
            "is_sole": 1,
            "is_popular": 0,
            "category_id": 1,
            "brand_id": 6,
            "collab_id": 1,
            "created_at": "2024-05-07T00:00:00.000000Z",
            "updated_at": "2024-05-09T18:24:48.000000Z",
            "deleted_at": null,
            "meta_infos": []
          },
          {
            "id": 3,
            "name": "Air Force Low",
            "subname": "Air Force",
            "description": "Tenis da moda tiktok",
            "color": "White",
            "code": "15432",
            "release_date": null,
            "re_release_date": null,
            "re_release_restock": null,
            "value_retail": 200,
            "is_sole": 0,
            "is_popular": 0,
            "category_id": 1,
            "brand_id": 6,
            "collab_id": null,
            "created_at": "2024-05-07T00:00:00.000000Z",
            "updated_at": "2024-05-09T18:24:48.000000Z",
            "deleted_at": null,
            "meta_infos": []
          },
          {
            "id": 4,
            "name": "Air Force Low",
            "subname": "Air Force",
            "description": "Tenis da moda tiktok",
            "color": "Black",
            "code": "15433",
            "release_date": null,
            "re_release_date": null,
            "re_release_restock": null,
            "value_retail": 300,
            "is_sole": 0,
            "is_popular": 1,
            "category_id": 1,
            "brand_id": 6,
            "collab_id": null,
            "created_at": "2024-02-07T00:00:00.000000Z",
            "updated_at": "2024-05-09T18:24:48.000000Z",
            "deleted_at": null,
            "meta_infos": []
          },
          {
            "id": 5,
            "name": "Vans Old Skool",
            "subname": "Old Skool",
            "description": "Tenis brabo da vans",
            "color": "Black/White",
            "code": "10987",
            "release_date": null,
            "re_release_date": null,
            "re_release_restock": null,
            "value_retail": 250,
            "is_sole": 0,
            "is_popular": 1,
            "category_id": 1,
            "brand_id": 9,
            "collab_id": null,
            "created_at": "2022-04-07T00:00:00.000000Z",
            "updated_at": "2024-05-09T18:24:48.000000Z",
            "deleted_at": null,
            "meta_infos": []
          },
          {
            "id": 6,
            "name": "Off-White x Air Jordan 4 Sail Feminino",
            "subname": "Jordan Off Whitee",
            "description": "Tenis de rico",
            "color": "Cream",
            "code": "18876",
            "release_date": null,
            "re_release_date": null,
            "re_release_restock": null,
            "value_retail": 2000,
            "is_sole": 1,
            "is_popular": 1,
            "category_id": 1,
            "brand_id": 1,
            "collab_id": 4,
            "created_at": "2024-04-07T00:00:00.000000Z",
            "updated_at": "2024-05-09T18:24:48.000000Z",
            "deleted_at": null,
            "meta_infos": []
          },
          {
            "id": 7,
            "name": "Yeezy Slide",
            "subname": "Yeezy",
            "description": "Chinelo Pica",
            "color": "Black",
            "code": "65423",
            "release_date": null,
            "re_release_date": null,
            "re_release_restock": null,
            "value_retail": 100,
            "is_sole": 0,
            "is_popular": 0,
            "category_id": 1,
            "brand_id": 7,
            "collab_id": 3,
            "created_at": "2024-02-07T00:00:00.000000Z",
            "updated_at": "2024-05-09T18:24:48.000000Z",
            "deleted_at": null,
            "meta_infos": []
          },
          {
            "id": 8,
            "name": "Yeezy Boost 350",
            "subname": "Yeezy",
            "description": "Pisar fofo",
            "color": "White",
            "code": "73552",
            "release_date": null,
            "re_release_date": null,
            "re_release_restock": null,
            "value_retail": 450,
            "is_sole": 0,
            "is_popular": 1,
            "category_id": 1,
            "brand_id": 3,
            "collab_id": null,
            "created_at": "2023-04-07T00:00:00.000000Z",
            "updated_at": "2024-05-09T18:24:48.000000Z",
            "deleted_at": null,
            "meta_infos": []
          },
          {
            "id": 9,
            "name": "Puma Suede",
            "subname": "Puma",
            "description": "Tenis mediano",
            "color": "Black/White",
            "code": "93745",
            "release_date": null,
            "re_release_date": null,
            "re_release_restock": null,
            "value_retail": 200,
            "is_sole": 0,
            "is_popular": 1,
            "category_id": 1,
            "brand_id": 8,
            "collab_id": null,
            "created_at": "2024-04-15T00:00:00.000000Z",
            "updated_at": "2024-05-09T18:24:48.000000Z",
            "deleted_at": null,
            "meta_infos": []
          },
          {
            "id": 10,
            "name": "Nike SB",
            "subname": "SB",
            "description": "Tenis brabo",
            "color": "Black",
            "code": "87654",
            "release_date": null,
            "re_release_date": null,
            "re_release_restock": null,
            "value_retail": 300,
            "is_sole": 0,
            "is_popular": 1,
            "category_id": 1,
            "brand_id": 6,
            "collab_id": null,
            "created_at": "2024-04-15T00:00:00.000000Z",
            "updated_at": "2024-05-09T18:24:48.000000Z",
            "deleted_at": null,
            "meta_infos": []
          }
        ],
        "first_page_url": "http://127.0.0.1:8000/api/catalogs?page=1",
        "from": 1,
        "last_page": 1,
        "last_page_url": "http://127.0.0.1:8000/api/catalogs?page=1",
        "links": [
          {
            "url": null,
            "label": "&laquo; Anterior",
            "active": false
          },
          {
            "url": "http://127.0.0.1:8000/api/catalogs?page=1",
            "label": "1",
            "active": true
          },
          {
            "url": null,
            "label": "Próximo &raquo;",
            "active": false
          }
        ],
        "next_page_url": null,
        "path": "http://127.0.0.1:8000/api/catalogs",
        "per_page": 10,
        "prev_page_url": null,
        "to": 10,
        "total": 10
      }
    }
  ],
  "categories": [
    {
      "error": false,
      "message": "Categoerias listadas com sucesso!",
      "data": {
        "current_page": 1,
        "data": [
          {
            "id": 1,
            "name": "Tênis",
            "description": "Descrição da categoria Tênis",
            "created_at": "2024-05-09T19:34:55.000000Z",
            "updated_at": "2024-05-09T19:34:55.000000Z",
            "deleted_at": null
          },
          {
            "id": 2,
            "name": "Roupas",
            "description": "Descrição da categoria Roupas",
            "created_at": "2024-05-09T19:34:55.000000Z",
            "updated_at": "2024-05-09T19:34:55.000000Z",
            "deleted_at": null
          },
          {
            "id": 3,
            "name": "Acessórios",
            "description": "Descrição da categoria Acessórios",
            "created_at": "2024-05-09T19:34:55.000000Z",
            "updated_at": "2024-05-09T19:34:55.000000Z",
            "deleted_at": null
          },
          {
            "id": 4,
            "name": "Vestidos",
            "description": "Descrição da categoria Vestidos",
            "created_at": "2024-05-09T19:34:55.000000Z",
            "updated_at": "2024-05-09T19:34:55.000000Z",
            "deleted_at": null
          },
          {
            "id": 5,
            "name": "Calças",
            "description": "Descrição da categoria Calças",
            "created_at": "2024-05-09T19:34:55.000000Z",
            "updated_at": "2024-05-09T19:34:55.000000Z",
            "deleted_at": null
          },
          {
            "id": 6,
            "name": "Camisas",
            "description": "Descrição da categoria Camisas",
            "created_at": "2024-05-09T19:34:55.000000Z",
            "updated_at": "2024-05-09T19:34:55.000000Z",
            "deleted_at": null
          },
          {
            "id": 7,
            "name": "Saias",
            "description": "Descrição da categoria Saias",
            "created_at": "2024-05-09T19:34:55.000000Z",
            "updated_at": "2024-05-09T19:34:55.000000Z",
            "deleted_at": null
          },
          {
            "id": 8,
            "name": "Blusas",
            "description": "Descrição da categoria Blusas",
            "created_at": "2024-05-09T19:34:55.000000Z",
            "updated_at": "2024-05-09T19:34:55.000000Z",
            "deleted_at": null
          },
          {
            "id": 9,
            "name": "Jaquetas",
            "description": "Descrição da categoria Jaquetas",
            "created_at": "2024-05-09T19:34:55.000000Z",
            "updated_at": "2024-05-09T19:34:55.000000Z",
            "deleted_at": null
          },
          {
            "id": 10,
            "name": "Sapatos",
            "description": "Descrição da categoria Sapatos",
            "created_at": "2024-05-09T19:34:55.000000Z",
            "updated_at": "2024-05-09T19:34:55.000000Z",
            "deleted_at": null
          }
        ],
        "first_page_url": "http://127.0.0.1:8000/api/category?page=1",
        "from": 1,
        "last_page": 2,
        "last_page_url": "http://127.0.0.1:8000/api/category?page=2",
        "links": [
          {
            "url": null,
            "label": "&laquo; Previous",
            "active": false
          },
          {
            "url": "http://127.0.0.1:8000/api/category?page=1",
            "label": "1",
            "active": true
          },
          {
            "url": "http://127.0.0.1:8000/api/category?page=2",
            "label": "2",
            "active": false
          },
          {
            "url": "http://127.0.0.1:8000/api/category?page=2",
            "label": "Next &raquo;",
            "active": false
          }
        ],
        "next_page_url": "http://127.0.0.1:8000/api/category?page=2",
        "path": "http://127.0.0.1:8000/api/category",
        "per_page": 10,
        "prev_page_url": null,
        "to": 10,
        "total": 11
      }
    }
  ],
  "brands": [
    {
      "error": false,
      "message": "Marcas listadas com sucesso!",
      "data": {
        "current_page": 1,
        "data": [
          {
            "id": 1,
            "name": "Jordan",
            "type": "clothing",
            "description": "This is a description forJordan",
            "its_popular": 0,
            "logo_img_url": "https://logosmarcas.net/wp-content/uploads/2020/04/Air-Jordan-Logo.png",
            "created_at": "2024-05-09T19:34:55.000000Z",
            "updated_at": "2024-05-09T19:34:55.000000Z",
            "deleted_at": null
          },
          {
            "id": 2,
            "name": "NOCTA",
            "type": "clothing",
            "description": "This is a description forNOCTA",
            "its_popular": 1,
            "logo_img_url": "https://cdn.freelogovectors.net/wp-content/uploads/2023/09/nike-nocta-logo-freelogovectors.net_.png",
            "created_at": "2024-05-09T19:34:55.000000Z",
            "updated_at": "2024-05-09T19:34:55.000000Z",
            "deleted_at": null
          },
          {
            "id": 3,
            "name": "Yeezy",
            "type": "clothing",
            "description": "This is a description forYeezy",
            "its_popular": 0,
            "logo_img_url": "https://logosmarcas.net/wp-content/uploads/2020/11/Yeezy-Logo.png",
            "created_at": "2024-05-09T19:34:55.000000Z",
            "updated_at": "2024-05-09T19:34:55.000000Z",
            "deleted_at": null
          },
          {
            "id": 4,
            "name": "Off-White",
            "type": "clothing",
            "description": "This is a description forOff-White",
            "its_popular": 1,
            "logo_img_url": "https://logosmarcas.net/wp-content/uploads/2021/10/Off-White-Logo.png",
            "created_at": "2024-05-09T19:34:55.000000Z",
            "updated_at": "2024-05-09T19:34:55.000000Z",
            "deleted_at": null
          },
          {
            "id": 5,
            "name": "Gucci",
            "type": "clothing",
            "description": "This is a description forGucci",
            "its_popular": 1,
            "logo_img_url": "https://logosmarcas.net/wp-content/uploads/2020/04/Gucci-Logo.png",
            "created_at": "2024-05-09T19:34:55.000000Z",
            "updated_at": "2024-05-09T19:34:55.000000Z",
            "deleted_at": null
          },
          {
            "id": 6,
            "name": "Nike",
            "type": "clothing",
            "description": "This is a description forNike",
            "its_popular": 0,
            "logo_img_url": "https://upload.wikimedia.org/wikipedia/commons/thumb/a/a6/Logo_NIKE.svg/2560px-Logo_NIKE.svg.png",
            "created_at": "2024-05-09T19:34:55.000000Z",
            "updated_at": "2024-05-09T19:34:55.000000Z",
            "deleted_at": null
          },
          {
            "id": 7,
            "name": "Adidas",
            "type": "clothing",
            "description": "This is a description forAdidas",
            "its_popular": 1,
            "logo_img_url": "https://logosmarcas.net/wp-content/uploads/2020/04/Adidas-Logo.png",
            "created_at": "2024-05-09T19:34:55.000000Z",
            "updated_at": "2024-05-09T19:34:55.000000Z",
            "deleted_at": null
          },
          {
            "id": 8,
            "name": "Puma",
            "type": "clothing",
            "description": "This is a description forPuma",
            "its_popular": 1,
            "logo_img_url": "https://cdn.icon-icons.com/icons2/3914/PNG/512/puma_logo_icon_248754.png",
            "created_at": "2024-05-09T19:34:55.000000Z",
            "updated_at": "2024-05-09T19:34:55.000000Z",
            "deleted_at": null
          },
          {
            "id": 9,
            "name": "Vans",
            "type": "clothing",
            "description": "This is a description forVans",
            "its_popular": 1,
            "logo_img_url": "https://i.pinimg.com/originals/58/b0/f4/58b0f4e625a115458425a4ebd54ebf94.png",
            "created_at": "2024-05-09T19:34:55.000000Z",
            "updated_at": "2024-05-09T19:34:55.000000Z",
            "deleted_at": null
          },
          {
            "id": 10,
            "name": "New Balance",
            "type": "clothing",
            "description": "This is a description forNew Balance",
            "its_popular": 1,
            "logo_img_url": "https://seeklogo.com/images/N/New_Balance-logo-F34722CB97-seeklogo.com.png",
            "created_at": "2024-05-09T19:34:55.000000Z",
            "updated_at": "2024-05-09T19:34:55.000000Z",
            "deleted_at": null
          }
        ],
        "first_page_url": "http://127.0.0.1:8000/api/brand?page=1",
        "from": 1,
        "last_page": 1,
        "last_page_url": "http://127.0.0.1:8000/api/brand?page=1",
        "links": [
          {
            "url": null,
            "label": "&laquo; Previous",
            "active": false
          },
          {
            "url": "http://127.0.0.1:8000/api/brand?page=1",
            "label": "1",
            "active": true
          },
          {
            "url": null,
            "label": "Next &raquo;",
            "active": false
          }
        ],
        "next_page_url": null,
        "path": "http://127.0.0.1:8000/api/brand",
        "per_page": 10,
        "prev_page_url": null,
        "to": 10,
        "total": 10
      }
    }
  ],
  "collabs": [
    {
      "error": false,
      "message": "Collabs listadas com sucesso!",
      "data": {
        "current_page": 1,
        "data": [
          {
            "id": 1,
            "name": "Jordan",
            "created_at": "2024-05-09T19:34:55.000000Z",
            "updated_at": "2024-05-09T19:34:55.000000Z",
            "deleted_at": null
          },
          {
            "id": 2,
            "name": "NOCTA",
            "created_at": "2024-05-09T19:34:55.000000Z",
            "updated_at": "2024-05-09T19:34:55.000000Z",
            "deleted_at": null
          },
          {
            "id": 3,
            "name": "Yeezy",
            "created_at": "2024-05-09T19:34:55.000000Z",
            "updated_at": "2024-05-09T19:34:55.000000Z",
            "deleted_at": null
          },
          {
            "id": 4,
            "name": "Off-White",
            "created_at": "2024-05-09T19:34:55.000000Z",
            "updated_at": "2024-05-09T19:34:55.000000Z",
            "deleted_at": null
          },
          {
            "id": 5,
            "name": "Gucci",
            "created_at": "2024-05-09T19:34:55.000000Z",
            "updated_at": "2024-05-09T19:34:55.000000Z",
            "deleted_at": null
          },
          {
            "id": 6,
            "name": "Nike",
            "created_at": "2024-05-09T19:34:55.000000Z",
            "updated_at": "2024-05-09T19:34:55.000000Z",
            "deleted_at": null
          },
          {
            "id": 7,
            "name": "Adidas",
            "created_at": "2024-05-09T19:34:55.000000Z",
            "updated_at": "2024-05-09T19:34:55.000000Z",
            "deleted_at": null
          },
          {
            "id": 8,
            "name": "Puma",
            "created_at": "2024-05-09T19:34:55.000000Z",
            "updated_at": "2024-05-09T19:34:55.000000Z",
            "deleted_at": null
          },
          {
            "id": 9,
            "name": "Vans",
            "created_at": "2024-05-09T19:34:55.000000Z",
            "updated_at": "2024-05-09T19:34:55.000000Z",
            "deleted_at": null
          },
          {
            "id": 10,
            "name": "Converse",
            "created_at": "2024-05-09T19:34:55.000000Z",
            "updated_at": "2024-05-09T19:34:55.000000Z",
            "deleted_at": null
          }
        ],
        "first_page_url": "http://127.0.0.1:8000/api/collab?page=1",
        "from": 1,
        "last_page": 2,
        "last_page_url": "http://127.0.0.1:8000/api/collab?page=2",
        "links": [
          {
            "url": null,
            "label": "&laquo; Previous",
            "active": false
          },
          {
            "url": "http://127.0.0.1:8000/api/collab?page=1",
            "label": "1",
            "active": true
          },
          {
            "url": "http://127.0.0.1:8000/api/collab?page=2",
            "label": "2",
            "active": false
          },
          {
            "url": "http://127.0.0.1:8000/api/collab?page=2",
            "label": "Next &raquo;",
            "active": false
          }
        ],
        "next_page_url": "http://127.0.0.1:8000/api/collab?page=2",
        "path": "http://127.0.0.1:8000/api/collab",
        "per_page": 10,
        "prev_page_url": null,
        "to": 10,
        "total": 11
      }
    }
  ]
}
